…
  Then collect data for both genders: 


```r
  male_cancer_age = brfss2013 %>% group_by(X_age80) %>% 
    filter(sex=="Male", isCancer=="Yes", !is.na(X_age80)) %>%
    summarise(freq = n())
  
  male_cancer_age
```

```
## # A tibble: 63 x 2
##    X_age80  freq
##      <int> <int>
##  1      18    15
##  2      19    10
##  3      20    18
##  4      21    18
##  5      22    19
##  6      23    15
##  7      24    23
##  8      25    22
##  9      26    27
## 10      27    28
## # ... with 53 more rows
```

```r
  female_cancer_age = brfss2013 %>% group_by(X_age80) %>%
    filter(sex=="Female", isCancer=="Yes", !is.na(X_age80)) %>%
    summarise(freq = n())
  
  female_cancer_age
```

```
## # A tibble: 64 x 2
##    X_age80  freq
##      <int> <int>
##  1       2     1
##  2      18    13
##  3      19    16
##  4      20    23
##  5      21    33
##  6      22    37
##  7      23    53
##  8      24    61
##  9      25    56
## 10      26    97
## # ... with 54 more rows
```
…
