…
Now, let's investigate the other variable, family income level. 


```r
family_income = gss %>% group_by(coninc) %>% 
    filter(!is.na(coninc)) %>% 
    summarise(freq = n())

family_income
```

```
## # A tibble: 547 x 2
##    coninc  freq
##     <int> <int>
##  1    383    24
##  2    402    43
##  3    415    20
##  4    441    43
##  5    468    42
##  6    486    39
##  7    517    30
##  8    535    36
##  9    561    26
## 10    587    23
## # … with 537 more rows
```
…
